Portfolio 2
…
? AirPassengers

# Convert AirPassengers to a tibble
air_passengers_df <- tibble(
  year = rep(1949:1960, each = 12),  # Repeat years for each month
  month = rep(month.abb, times = 12),  # Repeat month names
  passengers = as.numeric(AirPassengers)  # Convert to numeric
)

# View dataset
print(air_passengers_df)

## # A tibble: 144 × 3
##     year month passengers
##    <int> <chr>      <dbl>
##  1  1949 Jan          112
##  2  1949 Feb          118
##  3  1949 Mar          132
##  4  1949 Apr          129
##  5  1949 May          121
##  6  1949 Jun          135
##  7  1949 Jul          148
##  8  1949 Aug          148
##  9  1949 Sep          136
## 10  1949 Oct          119
## # ℹ 134 more rows
…
